<?xml version="1.0" encoding="utf-8"?>
<!-- Generator: Adobe Illustrator 24.2.0, SVG Export Plug-In . SVG Version: 6.00 Build 0)  -->
<svg version="1.1" id="Layer_1" xmlns="http://www.w3.org/2000/svg" xmlns:xlink="http://www.w3.org/1999/xlink" x="0px" y="0px"
	 viewBox="0 0 351.32 52.09" style="enable-background:new 0 0 351.32 52.09;" xml:space="preserve">
<style type="text/css">
	.st0{fill:#FFFFFF;}
	.st1{font-family:'Eina03-Bold';}
	.st2{font-size:44.0722px;}
</style>
<text transform="matrix(1 0 0 1 9.3126 43.5018)" class="st0 st1 st2">Applychoices</text>
</svg>
